{
    "id": 21,
    "updatedOn": 1443706656649,
    "createdOn": 1443706656649,
    "password": null,
    "userName": "test2",
    "tenant": {
        "id": 1,
        "updatedOn": 1442128301746,
        "createdOn": 1442128301746,
        "name": "Verizon",
        "description": "Verizon Wireless"
    },
    "enabled": true,
    "role": 3
}