{
    "id": 41,
    "updatedOn": 1444021755713,
    "createdOn": 1444021755713,
    "password": null,
    "userName": "read",
    "tenant": {
        "id": 1,
        "updatedOn": 1442128301746,
        "createdOn": 1442128301746,
        "name": "Verizon",
        "description": "Verizon Wireless"
    },
    "enabled": true,
    "role": 4
}