{
	"itotalRecords": 1,
	"itotalDisplayRecords": 1,
	"iTotalRecords": 1,
	"iTotalDisplayRecords": 1,
	"aaData": [
		{
			"id": 1,
			"updatedOn": 1504870017774,
			"createdOn": 1504870017774,
			"roleName": "Sample",
			"description": "Engineering"
		}
	]
}